…
``` r
# posterior probabilities
Daily_SongRate_pp = pp(new_data_mod_a); Daily_SongRate_pp
```

    ## # A tibble: 91 × 4
    ##    DayN1 DayN2    pp `sig (2>1)`
    ##    <fct> <fct> <dbl> <chr>      
    ##  1 1     2     0.988 sig        
    ##  2 1     3     0.974 sig        
    ##  3 1     4     0.998 sig        
    ##  4 1     5     0.997 sig        
    ##  5 1     6     0.999 sig        
    ##  6 1     7     1.00  sig        
    ##  7 1     8     0.999 sig        
    ##  8 1     9     1.00  sig        
    ##  9 1     10    1.00  sig        
    ## 10 1     11    1     sig        
    ## # ℹ 81 more rows
…
``` r
# posterior probabilities
SongLen_pp = pp(new_data_mod_a); SongLen_pp
```

    ## # A tibble: 91 × 4
    ##    DayN1 DayN2    pp `sig (2>1)`
    ##    <fct> <fct> <dbl> <chr>      
    ##  1 1     2     0.713 <NA>       
    ##  2 1     3     0.842 <NA>       
    ##  3 1     4     0.888 <NA>       
    ##  4 1     5     0.951 sig        
    ##  5 1     6     0.969 sig        
    ##  6 1     7     0.984 sig        
    ##  7 1     8     0.987 sig        
    ##  8 1     9     0.985 sig        
    ##  9 1     10    0.987 sig        
    ## 10 1     11    0.992 sig        
    ## # ℹ 81 more rows
…
``` r
# posterior probabilities
SylperSong_pp = pp(new_data_mod_a); SylperSong_pp
```

    ## # A tibble: 91 × 4
    ##    DayN1 DayN2    pp `sig (2>1)`
    ##    <fct> <fct> <dbl> <chr>      
    ##  1 1     2     0.887 <NA>       
    ##  2 1     3     0.945 <NA>       
    ##  3 1     4     0.972 sig        
    ##  4 1     5     0.992 sig        
    ##  5 1     6     0.993 sig        
    ##  6 1     7     0.996 sig        
    ##  7 1     8     0.996 sig        
    ##  8 1     9     0.998 sig        
    ##  9 1     10    0.998 sig        
    ## 10 1     11    0.998 sig        
    ## # ℹ 81 more rows
…
``` r
# posterior probabilities
RepetitionRate_pp = pp(new_data_mod_a); RepetitionRate_pp
```

    ## # A tibble: 91 × 4
    ##    DayN1 DayN2    pp `sig (2>1)`
    ##    <fct> <fct> <dbl> <chr>      
    ##  1 1     2     0.963 sig        
    ##  2 1     3     0.964 sig        
    ##  3 1     4     0.979 sig        
    ##  4 1     5     0.984 sig        
    ##  5 1     6     0.970 sig        
    ##  6 1     7     0.948 <NA>       
    ##  7 1     8     0.952 sig        
    ##  8 1     9     0.990 sig        
    ##  9 1     10    0.984 sig        
    ## 10 1     11    0.984 sig        
    ## # ℹ 81 more rows
…
